CREATE TABLE UJI_ACTAS.ACT_INFORMACIONES
(
  ID            NUMBER                          NOT NULL,
  TEXTO         VARCHAR2(2000 CHAR),
  ORDEN         NUMBER                          NOT NULL,
  FECHA_INICIO  DATE                            NOT NULL,
  FECHA_FIN     DATE
);

CREATE UNIQUE INDEX UJI_ACTAS.ACT_INFORMACIONES_PK ON UJI_ACTAS.ACT_INFORMACIONES (ID);

ALTER TABLE ACT_VM_ACTAS MODIFY( TIPO_ESTUDIO_ID VARCHAR2(10));
ALTER TABLE ACT_VM_ACTAS_TEMP MODIFY( TIPO_ESTUDIO_ID VARCHAR2(10));