CREATE OR REPLACE FORCE VIEW UJI_ACTAS.ACT_VW_ACTAS_DILIGENCIAS
(ACTA_ID, TIPO_ESTUDIO_ID, TIPO_ESTUDIO, CONVOCATORIA_ID, CONVOCATORIA,
 ID_UJI, CURSO_ACADEMICO_ID, ASIGNATURA_ID, ASIGNATURA, ALUMNO_ID,
 NOMBRE_ALUMNO, IDENTIFICACION, CUENTA, NOTA, CALIFICACION_ID,
 CALIFICACION, COMENTARIO_DILIGENCIA, FECHA_INICIO_TRASPASO, FECHA_FIN_TRASPASO, FECHA_TRASPASO,
 FECHA_FIRMA_DIGITAL, REFERENCIA, PERSONA_ID_ALTA, PERSONA_ALTA, PERSONA_ID_TRASPASO,
 PERSONA_TRASPASO, ACTA_ESTUDIANTE_ID, TIENE_DILIGENCIAS, MOTIVO_EXCLUSION)
BEQUEATH DEFINER
AS
SELECT a.id                                       acta_id,
          a.tipo_Estudio_id,
          te.nombre                                  tipo_Estudio,
          a.convocatoria_id,
          c.nombre                                   convocatoria,
          c.id_uji,
          a.curso_academico_id,
          aa.asignatura_id,
          asi.nombre                                 asignatura,
          e.persona_id                               alumno_id,
          p.nombre || ' ' || p.apellidos             nombre_alumno,
          p.identificacion,
          p.cuenta,
          NVL(d.nota_nueva, nota)                    nota,
          NVL(d.calificacion_nueva, calificacion_id) calificacion_id,
          cal.nombre                                 calificacion,
          d.comentario_diligencia,
          f.fecha_inicio_traspaso,
          f.fecha_fin_traspaso,
          a.fecha_traspaso,
          a.fecha_firma_digital,
          a.referencia,
          a.per_id                                   persona_id_alta,
          p1.nombre || ' ' || p1.apellidos           persona_alta,
          a.persona_id_traspaso,
          p2.nombre || ' ' || p2.apellidos           persona_traspaso,
          e.ID                                       acta_Estudiante_id,
          (select decode(count(*), 0, 0, 1)
           from act_actas_diligencias
           where     acta_id = a.id
                 and acta_estudiante_id = e.id)
             tiene_diligencias,
             e.motivo_exclusion
   FROM act_Actas                  a,
        act_actas_asignaturas      aa,
        act_convocatorias          c,
        act_ext_asignaturas        asi,
        act_tipos_estudios         te,
        act_Fechas_convocatorias   f,
        act_actas_estudiantes      e,
        (SELECT 1 id, 'Suspés' nombre FROM DUAL
         UNION ALL
         SELECT 2 id, 'Aprobat' nombre FROM DUAL
         UNION ALL
         SELECT 3 id, 'Notable' nombre FROM DUAL
         UNION ALL
         SELECT 4 id, 'Excel·lent' nombre FROM DUAL
         UNION ALL
         SELECT 5 id, 'Matrícula d''honor' nombre FROM DUAL
         UNION ALL
         SELECT -1 id, 'No presentat' nombre
         FROM DUAL) cal,
        act_ext_personas           p,
        act_ext_personas           p1,
        act_ext_personas           p2,
        (SELECT *
         FROM act_Actas_diligencias d
         WHERE fecha = (SELECT MAX(fecha)
                        FROM act_actas_diligencias d2
                        WHERE     d.acta_id = d2.acta_id
                              AND d.ACTA_ESTUDIANTE_ID = d2.ACTA_ESTUDIANTE_ID
                              AND d.PERSONA_ID = d2.PERSONA_ID)) d
   WHERE     a.id = aa.acta_id
         AND a.convocatoria_id = c.id
         AND a.tipo_estudio_id = te.id
         AND a.tipo_estudio_id = f.tipo_estudio_id
         AND a.convocatoria_id = f.convocatoria_id
         AND a.curso_academico_id = f.curso_academico_id
         AND a.fecha_traspaso IS NOT NULL
         AND aa.asignatura_id = asi.id
         AND aa.id = e.acta_asignatura_id
         AND NVL(e.calificacion_id, -1) = cal.id
         AND e.persona_id = p.id
         AND a.id = d.acta_id(+)
         AND e.id = d.acta_estudiante_id(+)
         AND a.per_id = p1.id(+)
         AND a.persona_id_traspaso = p2.id(+);

		 
		 
		 
		 

CREATE OR REPLACE FORCE VIEW UJI_ACTAS.ACT_EXT_LISTA_ACTAS
(
   CURSO_ACA,
   CODIGO,
   NOMBRE,
   GRUPO_ID,
   TIPO_ESTUDIO_ID,
   OFICIAL,
   ACTA_UNICA,
   CARACTER,
   EEP,
   EP,
   TIPO,
   SEMESTRE,
   EXTRAORDINARIA,
   ORDINARIA_1,
   ORDINARIA_2
)
   BEQUEATH DEFINER AS
   select distinct
          x.curso_aca,
          codigo,
          nombre,
          grupo_id,
          'G'                                                                                         tipo_Estudio_id,
          'S'                                                                                         oficial,
          decode
          (
             decode
             (
             decode(tipo,
             'A', decode(semestre,  1, 1,  2, 2,  null),
             'S', decode(semestre,  1, 1,  2, 2,  null),
             null),
             null, 0,
             1
             ) + decode(to_number(decode(caracter,  'PF', '',  'LC', '',  decode(tipo,  'A', '3',  'S', '3',  ''))),
             null, 0,
             1),
             1, 'S',
             'N'
          )
             acta_unica,
          caracter,
          eep,
          ep,
          tipo,
          semestre,
          5                                                                                           extraordinaria,
          decode
          (
             caracter,
             'PF', decode(tipo,
                          'A', decode(semestre,  1, 6,  2, 7,  null),
                          'S', decode(semestre,  1, 6,  2, 7,  null),
                          null),
             'LC', decode(tipo,
                          'A', decode(semestre,  1, 6,  2, 7,  null),
                          'S', decode(semestre,  1, 6,  2, 7,  null),
                          null),
             decode(tipo,
                    'A', decode(semestre,  1, 1,  2, 2,  null),
                    'S', decode(semestre,  1, 1,  2, 2,  null),
                    null)
          )
             ordinaria_1,
          to_number(decode(caracter,  'PF', '',  'LC', '',  decode(tipo,  'A', '3',  'S', '3',  ''))) ordinaria_2
   from (select ac.curso_aca,
                ac.asi_id   codigo,
                a.nombre    nombre,
                ''          grupo_id,
                tipo,
                caracter,
                eep,
                ep,
                semestre
         from pod_asi_cursos ac, gra_pod.pod_grupos g, pod_asignaturas a
         where     ac.curso_Aca >= 2016
               and cur_tit_id between 201 and 9999
               and ac.asi_id = a.id
               and a.id not like 'AT%'
               and a.id not like 'OT%'
               and g.id <> 'W'
               and ac.cur_id <> 7
               and ac.curso_Aca = g.curso_aca
               and ac.asi_id = g.asi_id
               and ac.asi_id not in (select asi_id
                                     from pod_comunes c, pod_grp_comunes g
                                     where     g.id = gco_id
                                           and curso_aca = ac.curso_aca)
         union all
         select curso_aca,
                codigo,
                min(decode(orden, 1, asignatura_nombre, null))   asignatura_nombre,
                ''                                               grupo_id,
                tipo,
                min(caracter)                                    caracter,
                eep,
                ep,
                semestre
         from (select curso_aca,
                      codigo,
                      asignatura_id,
                      asignatura_nombre,
                      caracter,
                      tipo,
                      eep,
                      ep,
                      semestre,
                      row_number() over(partition by curso_aca, codigo, semestre order by asignatura_id)     orden
               from (select distinct ac.curso_aca,
                                     g.nombre        codigo,
                                     ac.asi_id       asignatura_id,
                                     a.nombre        asignatura_nombre,
                                     caracter,
                                     tipo,
                                     eep,
                                     ep,
                                     semestre
                     from pod_comunes c, pod_grp_comunes g, pod_asi_cursos ac, pod_asignaturas a, pod_grupos gr
                     where     g.id = gco_id
                           and g.curso_aca = ac.curso_aca
                           and c.asi_id = ac.asi_id
                           and ac.cur_tit_id between 201 and 9999
                           and ac.curso_Aca >= 2016
                           and gr.id <> 'W'
                           and ac.cur_id <> 7
                           and ac.curso_Aca = gr.curso_aca
                           and ac.asi_id = gr.asi_id
                           and ac.asi_id = a.id))
         group by curso_aca,
                  codigo,                                                                                    --caracter,
                  tipo,
                  eep,
                  ep,
                  semestre) x
   union all
   select distinct
          curso_aca,
          pasi_id,
          a.nombre,
          ''                                             grupo_id,
          decode(m.oficial, 'S', 'M', 'MP')              tipo_estudio_id,
          m.oficial,
          decode(o.tipo, 'PF', 'S', 'N')                 acta_unica,
          o.tipo                                         caracter,
          a.ep                                           eep,
          'N'                                            ep,
          a.tipo,
          to_char(semestre),
          8                                              extraordinaria,
          decode
          (
             o.periodo,
             'T', decode(semestre,  1, 1,  2, 1,  3, 2,  4, 1,  5, 1,  6, 2),
             'S', decode(decode(o.tipo, 'PF', 'S', 'N'),
                         'S', decode(decode(semestre,  1, 1,  2, 2,  3, 1,  4, 2),  1, 6,  2, 7),
                         'N', decode(semestre,  1, 1,  2, 2,  3, 1,  4, 2))
          )
             ordinaria_1,
          decode(decode(o.tipo, 'PF', 'S', 'N'), 'N', 3) ordinaria_2
   from gra_pop.pop_asignaturas a, gra_pop.pop_oferta o, gra_pop.pop_grupos g, pop_masters m
   where     a.id = o.pasi_id
         and o.curso_aca >= 2016
         and o.curso_aca = g.pof_curso_aca
         and o.pasi_id = pof_pasi_id
         and pmas_id = pof_pmas_id
         and pmas_id not in (42100, 42000)
         and pmas_id = m.id
         and (o.curso_aca, o.pasi_id) not in (select pof_curso_aca, pof_pasi_id
                                              from pop_grupos
                                              where     pof_pmas_id = 42175
                                                    and pof_curso_aca >= 2016
                                              group by pof_curso_aca, pof_pasi_id
                                              having count(*) > 1)
   union all
   select distinct
          curso_aca,
          pasi_id || '-' || to_char(g.id)   pasi_id,
          a.nombre,
          to_char(g.id)                     grupo_id,
          decode(m.oficial, 'S', 'M', 'MP') tipo_estudio_id,
          m.oficial,
          decode(o.tipo, 'PF', 'S', 'N')    acta_unica,
          o.tipo                            caracter,
          a.ep                              eep,
          'N'                               ep,
          a.tipo,
          to_char(semestre),
          8                                 extraordinaria,
          decode(trunc((to_number(substr(o.pasi_id, 4)) - 1) / 7),
                 0, decode(g.id,  1, 1,  2, 2),
                 1, decode(g.id,  1, 2,  2, 1),
                 2, decode(g.id,  1, 1,  2, 2))
             ordinaria_1,
          decode(trunc((to_number(substr(o.pasi_id, 4)) - 1) / 7),
                 0, decode(g.id,  1, 3,  2, 4),
                 1, decode(g.id,  1, 4,  2, 3),
                 2, decode(g.id,  1, 3,  2, 4))
             ordinaria_2
   from gra_pop.pop_asignaturas a, gra_pop.pop_oferta o, gra_pop.pop_grupos g, pop_masters m
   where     a.id = o.pasi_id
         and o.curso_aca >= 2016
         and o.curso_aca = g.pof_curso_aca
         and o.pasi_id = pof_pasi_id
         and pmas_id = pof_pmas_id
         and pmas_id not in (42100, 42000)
         and pmas_id = m.id
         and (o.curso_aca, o.pasi_id) in (select pof_curso_aca, pof_pasi_id
                                          from pop_grupos
                                          where     pof_pmas_id = 42175
                                                and pof_curso_aca >= 2016
                                          group by pof_curso_aca, pof_pasi_id
                                          having count(*) > 1);

										  
CREATE OR REPLACE FORCE VIEW UJI_ACTAS.ACT_EXT_LISTA_ACTAS_ASI
(
   CURSO_ACA,
   CODIGO,
   ASI_ID,
   NOMBRE,
   GRUPO_ID
)
   BEQUEATH DEFINER AS
   select x.curso_aca, codigo, asi_id, nombre, grupo_id
   from (select ac.curso_aca, a.id codigo, ac.asi_id, a.nombre, '' grupo_id
         from pod_asi_cursos ac, pod_grupos g, pod_asignaturas a
         where     ac.curso_Aca >= 2016
               and cur_tit_id between 201 and 9999
               and ac.asi_id = a.id
               and a.id not like 'AT%'
               and a.id not like 'OT%'
               and ac.curso_Aca = g.curso_aca
               and ac.asi_id = g.asi_id
               and ac.asi_id not in (select asi_id
                                     from pod_comunes c, pod_grp_comunes g
                                     where     g.id = gco_id
                                           and curso_aca = ac.curso_aca)
         union all
         select distinct ac.curso_aca, g.nombre codigo, ac.asi_id, a.nombre, '' grupo_id
         from pod_comunes c, pod_grp_comunes g, pod_asi_cursos ac, pod_asignaturas a, pod_grupos gr
         where     g.id = gco_id
               and g.curso_aca = ac.curso_aca
               and c.asi_id = ac.asi_id
               and ac.cur_tit_id between 201 and 9999
               and ac.curso_Aca >= 2016
               and ac.curso_Aca = gr.curso_aca
               and ac.asi_id = gr.asi_id
               and ac.asi_id = a.id) x
   union all
   select distinct curso_aca, pasi_id codigo, pasi_id, a.nombre, '' grupo_id
   from gra_pop.pop_asignaturas a, gra_pop.pop_oferta o, gra_pop.pop_grupos g, pop_masters m
   where     a.id = o.pasi_id
         and o.curso_aca >= 2016
         and o.curso_aca = g.pof_curso_aca
         and o.pasi_id = pof_pasi_id
         and pmas_id = pof_pmas_id
         and pmas_id not in (42100, 42000)
         and pmas_id = m.id
         and (o.curso_aca, o.pasi_id) not in (select pof_curso_aca, pof_pasi_id
                                              from pop_grupos
                                              where     pof_pmas_id = 42175
                                                    and pof_curso_aca >= 2016
                                              group by pof_curso_aca, pof_pasi_id
                                              having count(*) > 1)
   union all
   select distinct curso_aca, pasi_id || '-' || to_char(g.id) codigo, pasi_id, a.nombre, to_char(g.id) grupo_id
   from gra_pop.pop_asignaturas a, gra_pop.pop_oferta o, gra_pop.pop_grupos g, pop_masters m
   where     a.id = o.pasi_id
         and o.curso_aca >= 2016
         and o.curso_aca = g.pof_curso_aca
         and o.pasi_id = pof_pasi_id
         and pmas_id = pof_pmas_id
         and pmas_id not in (42100, 42000)
         and pmas_id = m.id
         and (o.curso_aca, o.pasi_id) in (select pof_curso_aca, pof_pasi_id
                                          from pop_grupos
                                          where     pof_pmas_id = 42175
                                                and pof_curso_aca >= 2016
                                          group by pof_curso_aca, pof_pasi_id
                                          having count(*) > 1);


CREATE OR REPLACE PACKAGE UJI_ACTAS.pack_actas AS
   function traspasar_acta(p_Acta in number, p_per_id IN number)
      return number;

   function guardar_acta(p_acta in number, p_per_id in number)
      return number;


   function destraspasar_acta(p_acta in number, p_per_id in number)
      return number;


   function traspasar_nota(p_acta            in number,
                           p_estudiante_id   in number,
                           p_numerica        in number,
                           p_calificacion    in number,
                           p_per_id          in number,
                           p_modo            in varchar2)
      return varchar2;

   function motivo_exclusion(p_curso_aca in number, p_asignatura in varchar2, p_estudiante_id in number)
      return varchar2;

   procedure refrescar_vistas;

   function acta_xml_firma(p_acta in number)
      return clob;

   function puede_traspasar(p_per in number, p_curso in number, p_asi in varchar)
      return number;

   function diligencia_xml_firma(p_acta in number)
      return clob;

   function traspasar_diligencias(p_acta in number, p_per_id in number)
      return varchar2;

   FUNCTION calcular_nota(p_acta IN NUMBER, p_estudiante IN NUMBER)
      RETURN number;

   FUNCTION calcular_nota_detalle(p_acta IN NUMBER, p_estudiante IN NUMBER)
      RETURN varchar2;
END pack_actas;



CREATE OR REPLACE package body UJI_ACTAS.pack_actas as
   function traspasar_grado(p_curso          in number,
                            p_persona        in number,
                            p_asignatura     in varchar2,
                            p_convocatoria   in number,
                            p_nota           in number,
                            p_calificacion   in varchar2)
      return varchar2 is
      v_estudio             number;
      v_aux                 number;
      v_cuantas             number;
      v_rdo                 varchar2(1000);
      v_calificacion_real   varchar2(10);
   begin
      select mat_Exp_tit_id
      into v_estudio
      from uji_actas.act_Ext_asignaturas_cursadas
      where     MAT_EXP_PER_ID = p_persona
            and MAT_CURSO_ACA = p_curso
            and ASI_ID = p_asignatura;

      --dbms_output.put_line('Grado ' || p_curso || ' ' || p_persona || ' ' || p_asignatura || ' ' || p_convocatoria ||
      --                     ' ' || p_nota || ' ' || p_calificacion);

      if    p_nota is null
         or p_calificacion is null then
         delete uji_actas.exp_notas
         where     ASC_MAT_EXP_TIT_ID = v_estudio
               and ASC_MAT_EXP_PER_ID = p_persona
               and ASC_MAT_CURSO_ACA = p_curso
               and ASC_ASI_ID = p_asignatura
               and CON_ID = p_convocatoria;

         commit;

         select count(*)
         into v_aux
         from uji_actas.exp_notas
         where     ASC_MAT_EXP_TIT_ID = v_estudio
               and ASC_MAT_EXP_PER_ID = p_persona
               and ASC_MAT_CURSO_ACA = p_curso
               and ASC_ASI_ID = p_asignatura
               and CON_ID = p_convocatoria;

         if v_aux = 0 then
            v_Rdo := '1Correcte';
         else
            v_rdo := '0Error, no ha pogut esborrar la nota.';
         end if;
      else
         select decode(p_calificacion,  1, 'S',  2, 'A',  3, 'N',  4, 'X',  5, 'M') into v_calificacion_real from dual;

         select count(*)
         into v_cuantas
         from uji_Actas.exp_notas
         where     asc_mat_exp_tit_id = v_estudio
               and asc_mat_Exp_per_id = p_persona
               and asc_mat_curso_aca = p_curso
               and asc_asi_id = p_asignatura
               and con_id = p_convocatoria;

         if v_cuantas = 0 then
            begin
               insert into uji_actas.exp_notas(ASC_MAT_EXP_TIT_ID,
                                               ASC_MAT_EXP_PER_ID,
                                               ASC_MAT_CURSO_ACA,
                                               ASC_ASI_ID,
                                               CON_ID,
                                               CAL_ID,
                                               NOTA)
               values (v_estudio,
                       p_persona,
                       p_curso,
                       p_asignatura,
                       p_convocatoria,
                       v_calificacion_real,
                       p_nota);
            exception
               when others then
                  update uji_actas.exp_notas
                  set nota = p_nota, cal_id = v_calificacion_real
                  where     ASC_MAT_EXP_TIT_ID = v_estudio
                        and ASC_MAT_EXP_PER_ID = p_persona
                        and ASC_MAT_CURSO_ACA = p_curso
                        and ASC_ASI_ID = p_asignatura
                        and CON_ID = p_convocatoria;
            end;
         else
            update uji_actas.exp_notas
            set nota = p_nota, cal_id = v_calificacion_real
            where     ASC_MAT_EXP_TIT_ID = v_estudio
                  and ASC_MAT_EXP_PER_ID = p_persona
                  and ASC_MAT_CURSO_ACA = p_curso
                  and ASC_ASI_ID = p_asignatura
                  and CON_ID = p_convocatoria;
         end if;

         commit;

         select count(*)
         into v_aux
         from uji_actas.exp_notas
         where     ASC_MAT_EXP_TIT_ID = v_estudio
               and ASC_MAT_EXP_PER_ID = p_persona
               and ASC_MAT_CURSO_ACA = p_curso
               and ASC_ASI_ID = p_asignatura
               and CON_ID = p_convocatoria
               and nota = p_nota
               and cal_id = v_calificacion_real;

         if v_aux <> 0 then
            v_Rdo := '1Correcte';
         else
            v_rdo := '0Error, no ha pogut guardar la nota en l''expedient.';
         end if;
      end if;

      return (v_rdo);
   exception
      when others then
         return ('0' || sqlerrm);
   end;

   function traspasar_master(p_curso          in number,
                             p_persona        in number,
                             p_asignatura     in varchar2,
                             p_convocatoria   in number,
                             p_nota           in number,
                             p_calificacion   in varchar2)
      return varchar2 is
      v_estudio   number;
      v_aux       number;
      v_rdo       varchar2(1000);
   begin
      select mat_Exp_tit_id
      into v_estudio
      from uji_actas.act_Ext_asignaturas_cursadas
      where     MAT_EXP_PER_ID = p_persona
            and MAT_CURSO_ACA = p_curso
            and ASI_ID = p_asignatura;

      if     p_nota is null
         and p_calificacion is null then
         delete uji_actas.pop_notas
         where     pasi_pMAT_peXP_pmas_ID = v_estudio
               and pasi_pMAT_pEXP_PER_ID = p_persona
               and pasi_pMAT_CURSO_ACA = p_curso
               and pasi_ASI_ID = p_asignatura
               and CON_ID = p_convocatoria;

         commit;

         select count(*)
         into v_aux
         from uji_actas.pop_notas
         where     pasi_pMAT_peXP_pmas_ID = v_estudio
               and pasi_pMAT_pEXP_PER_ID = p_persona
               and pasi_pMAT_CURSO_ACA = p_curso
               and pasi_ASI_ID = p_asignatura
               and CON_ID = p_convocatoria;

         if v_aux = 0 then
            v_Rdo := '1Correcte';
         else
            v_rdo := '0Error, no ha pogut esborrar la nota.';
         end if;
      else
         begin
            insert into uji_actas.pop_notas(pasi_pMAT_peXP_pmas_ID,
                                            pasi_pMAT_pEXP_PER_ID,
                                            pasi_pMAT_CURSO_ACA,
                                            pasi_ASI_ID,
                                            CON_ID,
                                            CAL_ID,
                                            NOTA)
            values (v_estudio,
                    p_persona,
                    p_curso,
                    p_asignatura,
                    p_convocatoria,
                    p_calificacion,
                    p_nota);
         exception
            when others then
               update uji_actas.pop_notas
               set nota = p_nota, cal_id = p_calificacion
               where     pasi_pMAT_peXP_pmas_ID = v_estudio
                     and pasi_pMAT_pEXP_PER_ID = p_persona
                     and pasi_pMAT_CURSO_ACA = p_curso
                     and pasi_ASI_ID = p_asignatura
                     and CON_ID = p_convocatoria;
         end;

         commit;

         select count(*)
         into v_aux
         from uji_actas.pop_notas
         where     pasi_pMAT_peXP_pmas_ID = v_estudio
               and pasi_pMAT_pEXP_PER_ID = p_persona
               and pasi_pMAT_CURSO_ACA = p_curso
               and pasi_ASI_ID = p_asignatura
               and CON_ID = p_convocatoria
               and nota = p_nota
               and cal_id = p_calificacion;

         if v_aux <> 0 then
            v_Rdo := '1Correcte';
         else
            v_rdo := '0Error, no ha pogut guardar la nota en l''expedient.';
         end if;
      end if;

      return (v_rdo);
   exception
      when others then
         return ('0' || sqlerrm);
   end;


   function traspasar_acta_Real(p_Acta in number, p_per_id in number, p_modo in varchar2)
      return number is
      v_aux            number;
      v_rdo            varchar2(4000);
      v_Acta_unica     number;
      v_traspaso       date;
      v_fin_traspaso   date;
      v_referencia     varchar2(2000);
      v_codigo         varchar2(2000);
      v_curso_aca      number;
      v_detalle        number;
      v_nota           number;
      v_calificacion   number;
      vXml             clob;

      cursor lista_estudiantes is
         select asignatura_id,
                persona_id,
                convocatoria_id,
                curso_academico_id,
                a.fecha_traspaso,
                no_presentado,
                matricula_honor,
                e.fecha_traspaso                                fecha_trapaso_estudiante,
                decode(no_presentado, 1, null, nota)            nota,
                decode(no_presentado, 1, null, calificacion_id) calificacion_id,
                e.id                                            estudiante_id
         from act_Actas a, act_Actas_asignaturas aa, act_actas_estudiantes e
         where     a.id = p_acta
               and a.id = aa.acta_id
               and aa.id = e.acta_Asignatura_id
               and motivo_exclusion is null
               and a.fecha_traspaso is null
               and e.fecha_traspaso is null;
   begin
      select c.acta_unica, fecha_traspaso, fecha_fin_acta_unica, permite_detalle_notas
      into v_Acta_unica, v_traspaso, v_fin_traspaso, v_Detalle
      from act_Actas a, act_convocatorias c, act_fechas_convocatorias fc
      where     a.id = p_acta
            and a.convocatoria_id = c.id
            and c.id = fc.convocatoria_id
            and a.curso_academico_id = fc.curso_academico_id
            and a.tipo_estudio_id = fc.tipo_Estudio_id;

      if v_traspaso is null then
         begin
            for x in lista_Estudiantes loop
               if x.fecha_traspaso is null then
                  v_nota := x.nota;

                  if     v_detalle = 1
                     and v_nota is null
                     and x.no_presentado = 0 then
                     v_nota := calcular_nota(p_acta, x.persona_id);
                  end if;

                  if v_nota is null then
                     v_calificacion := null;
                  elsif v_nota < 5 then
                     v_calificacion := 1;
                  elsif v_nota < 7 then
                     v_calificacion := 2;
                  elsif v_nota < 9 then
                     v_calificacion := 3;
                  elsif x.matricula_honor = 0 then
                     v_calificacion := 4;
                  elsif x.matricula_honor = 1 then
                     v_calificacion := 5;
                  else
                     v_calificacion := null;
                  end if;

                  if v_detalle = 1 then
                     update act_actas_estudiantes
                     set nota = v_nota, calificacion_id = v_calificacion
                     where id = x.estudiante_id;
                  else
                     update act_actas_estudiantes
                     set calificacion_id = v_calificacion
                     where id = x.estudiante_id;
                  end if;

                  v_rdo :=
                     traspasar_nota(p_acta,
                                    x.persona_id,
                                    v_nota,
                                    v_calificacion,
                                    p_per_id,
                                    p_modo);
               end if;
            end loop;

            commit;

            if nvl(p_modo, 'G') = 'T' then
               update ACT_ACTAS
               set FECHA_TRASPASO = sysdate, persona_id_traspaso = p_per_id
               where ID = p_acta;

               -- generar documento a firmar
               select codigo, curso_academico_id
               into v_codigo, v_curso_aca
               from uji_Actas.act_actas
               where id = p_acta;

               /* firmar el acta digitalment */

               begin
                  vxml := uji_actas.pack_actas.acta_xml_firma(p_Acta);

                  if dbms_lob.getlength(vxml) > 0 then
                     v_Referencia :=
                        rf_firma_xades.insert_document(p_tipo          => 4,
                                                       p_ref_interna   => p_acta,
                                                       p_contenido     => vXml,
                                                       p_descripcion   => 'Acta ' || p_Acta || ' (' || v_codigo ||
                                                                         ' - ' || v_curso_aca || '/' || (v_curso_aca +
                                                                         1) || ')',
                                                       p_server        => 'S');

                     rf_firma_xades.insert_document_performer(p_referencia   => v_Referencia,
                                                              p_persona      => p_per_id,
                                                              p_rol          => 1);

                     update act_Actas
                     set fecha_firma_digital = sysdate, referencia = v_referencia
                     where id = p_acta;

                     commit;

                     return (1);
                  else
                     return (0);
                  end if;
               exception
                  when others then
                     return (0);
               end;
            else
               return (1);
            end if;
         end;
      end if;

      return (1);
   exception
      when others then
         return (0);
   end;

   function traspasar_acta(p_Acta in number, p_per_id in number)
      return number is
      v_rdo   number;
   begin
      v_rdo := traspasar_Acta_Real(p_Acta, p_per_id, 'T');
      return (v_rdo);
   end;

   function guardar_acta(p_Acta in number, p_per_id in number)
      return number is
      v_rdo          number;
      v_Acta_unica   number;
   begin
      select c.acta_unica
      into v_Acta_unica
      from act_Actas a, act_convocatorias c, act_fechas_convocatorias fc
      where     a.id = p_acta
            and a.convocatoria_id = c.id
            and c.id = fc.convocatoria_id
            and a.curso_academico_id = fc.curso_academico_id
            and a.tipo_estudio_id = fc.tipo_Estudio_id;

      if v_Acta_unica = 1 then
         v_rdo := traspasar_Acta_Real(p_Acta, p_per_id, 'G');
      else
         v_Rdo := 0;
      end if;

      return (v_rdo);
   exception
      when no_data_found then
         return (0);
   end;


   function destraspasar_acta(p_Acta in number, p_per_id in number)
      return number is
      v_aux          number;
      v_Acta_unica   number;
   begin
      -- quitar la fecha de traspaso en cada alumno
      select acta_unica
      into v_Acta_unica
      from act_Actas a
      where a.id = p_acta;

      if v_acta_unica = 0 then
         v_aux := hibernate_sequence.nextval;

         insert into act_actas_documentos(id,
                                          acta_id,
                                          fecha,
                                          persona_id_traspaso,
                                          fecha_traspaso,
                                          referencia,
                                          fecha_firma_digital)
            select v_aux,
                   id,
                   sysdate,
                   persona_id_traspaso,
                   fecha_traspaso,
                   referencia,
                   fecha_firma_digital
            from act_Actas
            where id = p_acta;

         update act_actas_estudiantes
         set fecha_traspaso = null, comentario_traspaso = null
         where acta_asignatura_id in (select aa.id
                                      from act_actas a, act_Actas_asignaturas aa
                                      where     a.id = aa.acta_id
                                            and a.id = p_acta);

         update act_Actas
         set persona_id_traspaso = null, fecha_traspaso = null, referencia = null, fecha_firma_digital = null
         where id = p_acta;

         commit;
         return (1);
      else
         return (0);
      end if;
   exception
      when others then
         dbms_output.put_line(sqlerrm);
         return (0);
   end;

   function traspasar_nota(p_Acta            in number,
                           p_estudiante_id   in number,
                           p_numerica        in number,
                           p_calificacion    in number,
                           p_per_id          in number,
                           p_modo            in varchar2)
      return varchar2 is
      v_tipo_estudio   varchar2(100);
      v_rdo            varchar2(4000);
      v_Acta_unica     number;
      v_convocatoria   number;

      cursor lista_estudiante(p_estudiante in number) is
         select asignatura_id,
                persona_id,
                convocatoria_id,
                curso_academico_id,
                a.fecha_traspaso,
                no_presentado,
                matricula_honor,
                e.fecha_traspaso                                fecha_trapaso_estudiante,
                decode(no_presentado, 1, null, nota)            nota,
                decode(no_presentado, 1, null, calificacion_id) calificacion_id,
                e.id,
                c.acta_unica,
                id_uji
         from act_Actas a, act_Actas_asignaturas aa, act_actas_estudiantes e, act_convocatorias c
         where     a.id = p_acta
               and a.id = aa.acta_id
               and aa.id = e.acta_Asignatura_id
               and motivo_exclusion is null
               and a.fecha_traspaso is null
               and e.fecha_traspaso is null
               and e.persona_id = p_estudiante
               and convocatoria_id = c.id;
   begin
      v_rdo := '0Acta ja traspasada';

      --dbms_output.put_line(p_estudiante_id);

      for x in lista_Estudiante(p_estudiante_id) loop
         select tipo_estudio_id
         into v_tipo_estudio
         from act_Actas
         where     curso_academico_id = x.curso_academico_id
               and codigo like '%' || x.asignatura_id || '%'
               and rownum <= 1;

         select id_uji
         into v_convocatoria
         from act_convocatorias_tipos_est
         where     convocatoria_id = x.convocatoria_id
               and tipo_estudio_id = v_tipo_estudio;

         --dbms_output.put_line(v_tipo_estudio || ' ' || v_convocatoria);

         if v_tipo_estudio = 'G' then
            v_rdo :=
               traspasar_grado(x.curso_academico_id,
                               x.persona_id,
                               x.asignatura_id,
                               v_convocatoria,
                               x.nota,
                               x.calificacion_id);
         elsif v_tipo_estudio in ('M', 'MP') then
            v_rdo :=
               traspasar_master(x.curso_academico_id,
                                x.persona_id,
                                x.asignatura_id,
                                v_convocatoria,
                                x.nota,
                                x.calificacion_id);
         else
            v_rdo := '0No implementat';
         end if;

         if    nvl(p_modo, 'G') = 'T'
            or x.nota is not null then
            update act_actas_estudiantes
            set fecha_traspaso = sysdate, comentario_traspaso = substr(v_rdo, 2)
            where id = x.id;
         else
            update act_actas_estudiantes
            set fecha_traspaso = null, comentario_traspaso = null
            where id = x.id;
         end if;
      end loop;

      return (v_rdo);
   exception
      when others then
         return (sqlerrm);
   end;


   function motivo_exclusion(p_curso_aca in number, p_asignatura in varchar2, p_estudiante_id in number)
      return varchar2 is
      vIncidencia      varchar2(4000);
      v_tipo_estudio   varchar2(100);
   begin
      select tipo_estudio_id
      into v_tipo_estudio
      from act_Actas
      where     curso_academico_id = p_curso_aca
            and codigo like '%' || p_asignatura || '%'
            and rownum <= 1;

      vIncidencia := null;

      if v_tipo_estudio = 'G' then
         begin
            select 'Aquest alumne ha solicitat una erasmus i no deu apareixer a l\''acta'
            into vIncidencia
            from exp_sol_convocatorias
            where     asc_mat_exp_per_id = p_estudiante_id
                  and asc_mat_curso_aca = p_curso_aca
                  and asc_asi_id = p_asignatura
                  and tipo in ('E', 'U')
                  and acta != 'S';
         exception
            when no_data_found then
               null;
            when others then
               vIncidencia := sqlerrm;
         end;
      end if;

      return (vIncidencia);
   exception
      when others then
         return (sqlerrm);
   end;

   procedure refrescar_vistas is
   begin
      delete act_vm_actas
      where ID in (select id
                   from (select ID,
                                CURSO_ACA,
                                ASI_CODIGOS,
                                ASI_NOMBRE,
                                PER_ID,
                                TIPO_ESTUDIO_ID,
                                OFICIAL,
                                ACTA_UNICA,
                                EXTRAORDINARIA,
                                ORDINARIA_1,
                                ORDINARIA_2,
                                PUEDE_TRASPASAR,
                                DEPARTAMENTO_ID,
                                DEPARTAMENTO_NOMBRE
                         from act_vm_actas
                         where curso_aca = (select id
                                            from act_cursos_academicos
                                            where activo = 1)
                         minus
                         select *
                         from act_vw_actas
                         where curso_aca = (select id
                                            from act_cursos_academicos
                                            where activo = 1)));

      commit;

      insert into act_vm_actas
         select *
         from act_vw_actas
         where     curso_aca = (select id
                                from act_cursos_academicos
                                where activo = 1)
               and id not in (select id
                              from act_vm_actas
                              where curso_aca = (select id
                                                 from act_cursos_academicos
                                                 where activo = 1));

      commit;
   end;

   function acta_xml_firma(p_Acta in number)
      return clob is
      vXML   clob;
   begin
      null;

      declare
         vXML           clob;
         vActa          number;
         noExisteActa   exception;
         vResponsable   varchar2(1000);

         cursor configuracionActa
         (
            v_acta    number
         ) is
            select a.codigo,
                   c.id_uji        convocatoria_id,
                   c.nombre        convocatoria,
                   a.curso_academico_id,
                   min(asi.nombre) nombre,
                   departamento_id,
                   departamento_nombre,
                   a.per_id
            from act_actas                   a,
                 act_actas_asignaturas       aa,
                 act_ext_asignaturas         asi,
                 act_convocatorias           c,
                 act_vw_actas_departamento   d
            where     a.id = v_acta
                  and a.id = aa.acta_id
                  and aa.asignatura_id = asi.id
                  and a.convocatoria_id = c.id
                  and a.id = d.acta_id
            group by a.codigo,
                     a.convocatoria_id,
                     c.id_uji,
                     c.nombre,
                     a.curso_academico_id,
                     departamento_id,
                     departamento_nombre,
                     a.per_id;

         cursor estudiantes(v_acta number) is
            select e.ID,
                   ACTA_ID,
                   CURSO_ACADEMICO_ID,
                   CONVOCATORIA_ID,
                   certificado_ca,
                   ASIGNATURA_ID,
                   GRUPO_ID,
                   PERSONA_ID,
                   MOTIVO_EXCLUSION,
                   NOTA                          nota_numerica,
                   CALIFICACION_ID,
                   nvl(c.nombre, 'No presentat') nota_cualitativa,
                   c.nombre                      calificacion,
                   (select p.apellidos || ', ' || p.nombre
                    from act_Ext_personas p
                    where id = persona_id)
                      nombre,
                   (select identificacion
                    from act_Ext_personas p
                    where id = persona_id)
                      identificacion
            from act_vw_actas_estudiantes   e,
                 act_convocatorias          conv,
                 (select 1 id, 'S' id_uji, 'Suspens' nombre from dual
                  union all
                  select 2 id, 'A' id_uji, 'Aprovat' nombre from dual
                  union all
                  select 3 id, 'N' id_uji, 'Notable' nombre from dual
                  union all
                  select 4 id, 'X' id_uji, 'Excel·lent' nombre from dual
                  union all
                  select 5 id, 'M' id_uji, 'Matrícula d''honor' nombre from dual) c
            where     acta_id = v_acta
                  and calificacion_id = c.id(+)
                  and convocatoria_id = conv.id
                  and motivo_exclusion is null
            order by 12;

         procedure w(v_cadena in varchar2) is
         begin
            dbms_lob.writeappend(vXML, length(v_cadena || chr(10)), v_cadena || chr(10));
         end;
      begin
         dbms_lob.createtemporary(vXML, true);
         w('<acta id="' || p_Acta || '">');
         w('  <configuracion>');

         for conf in configuracionActa(p_acta) loop
            begin
               select trim(nombre || ' ' || apellido1 || ' ' || apellido2) nombre
               into vResponsable
               from per_personas p
               where p.id = conf.per_id;
            exception
               when others then
                  vResponsable := null;
            end;

            w('    <asignatura id="' || conf.codigo || '">' || conf.nombre || '</asignatura>');
            w('    <grupo>' || '' || '</grupo>');
            w('    <convocatoria>' || conf.convocatoria || '</convocatoria>');
            w('    <curso_academico>' || conf.curso_academico_id || '</curso_academico>');
            w('    <departamento>' || conf.departamento_nombre || '</departamento>');
            w('    <responsable>' || vResponsable || '</responsable>');
         end loop;

         w('  </configuracion>');
         w('  <estudiantes>');

         for est in estudiantes(p_acta) loop
            w('    <estudiante>');
            w('      <dni>' || est.identificacion || '</dni>');
            w('      <nombre>' || est.nombre || '</nombre>');

            if est.nota_numerica = -1 then
               w('      <nota_acta numerica="' || est.nota_cualitativa || '" cualitativa="' || est.nota_cualitativa ||
                 '" />');
            else
               w('      <nota_acta numerica="' || est.nota_cualitativa || '" cualitativa="' || est.nota_numerica ||
                 '" />');
            end if;

            w('      <convocatoria>' || est.certificado_ca || '</convocatoria>');
            w('    </estudiante>');
         end loop;

         w('  </estudiantes>');

         w('</acta>');
         return vXML;
      end;
   end;

   function puede_traspasar(p_per in number, p_curso in number, p_asi in varchar)
      return number is
      v_aux   number;
   begin
      select decode(count(*), 0, 0, 1)
      into v_aux
      from gdo_asignaturas
      where     curso_aca = p_curso
            and cod_asignatura = p_asi
            and persona_id = p_per;

      return (v_aux);
   end;

   function diligencia_xml_firma(p_acta in number)
      return clob is
   begin
      declare
         vXML                   clob;
         vCurso                 number;
         vAsignatura            varchar2(10);
         vDescAsignatura        varchar2(1000);
         vConvocatoria          number;
         vDescConvocatoria      varchar2(1000);
         vGrupo                 varchar2(100);
         vDNI                   per_personas.identificacion%type;
         vEstudiante            varchar2(32767);
         vDescCalificacionNew   varchar2(200);
         vCalificacion          number;
         vNota                  number;
         vDescCalificacion      varchar2(100);

         cursor lista_diligencias(p_Acta in number) is
            select apellidos || ', ' || p.nombre   nombre_alumno,
                   identificacion,
                   nota_anterior,
                   calificacion_anterior,
                   nvl(c.nombre, 'No presentat')   calificacion_anterior_txt,
                   nota_nueva,
                   calificacion_nueva,
                   nvl(c2.nombre, ' No presentat') calificacion_nueva_txt,
                   ad.id                           diligencia_id
            from act_Actas               a,
                 act_actas_asignaturas   aa,
                 act_actas_estudiantes   e,
                 act_actas_diligencias   ad,
                 act_Ext_personas        p,
                 (select 1 id, 'S' id_uji, 'Suspens' nombre from dual
                  union all
                  select 2 id, 'A' id_uji, 'Aprovat' nombre from dual
                  union all
                  select 3 id, 'N' id_uji, 'Notable' nombre from dual
                  union all
                  select 4 id, 'X' id_uji, 'Excel·lent' nombre from dual
                  union all
                  select 5 id, 'M' id_uji, 'Matrícula d''honor' nombre from dual) c,
                 (select 1 id, 'S' id_uji, 'Suspens' nombre from dual
                  union all
                  select 2 id, 'A' id_uji, 'Aprovat' nombre from dual
                  union all
                  select 3 id, 'N' id_uji, 'Notable' nombre from dual
                  union all
                  select 4 id, 'X' id_uji, 'Excel·lent' nombre from dual
                  union all
                  select 5 id, 'M' id_uji, 'Matrícula d''honor' nombre from dual) c2
            where     a.id = p_acta
                  and a.id = aa.acta_id
                  and aa.id = e.acta_asignatura_id
                  and a.id = ad.acta_id
                  and e.id = ad.acta_estudiante_id
                  and ad.comentario_diligencia is null
                  and e.persona_id = p.id
                  and calificacion_anterior = c.id(+)
                  and calificacion_nueva = c2.id(+)
            order by fecha;

         procedure w(v_cadena in varchar2) is
         begin
            dbms_lob.writeappend(vXML, length(v_cadena || chr(10)), v_cadena || chr(10));
         end;
      begin
         dbms_lob.createtemporary(vXML, true);

         select distinct ac.curso_academico_id,
                         ac.codigo   asignatura_id,
                         c.id,
                         c.nombre,
                         aa.grupo_id grupo,
                         (select nombre
                          from act_ext_Asignaturas
                          where     aa.asignatura_id = asignatura_id
                                and rownum <= 1)
                            nombre
         into vCurso,
              vAsignatura,
              vConvocatoria,
              vDescConvocatoria,
              vGrupo,
              vDescAsignatura
         from act_actas ac, act_actas_Asignaturas aa, act_convocatorias c
         where     ac.id = p_acta
               and ac.id = aa.acta_id
               and c.id = ac.convocatoria_id;

         w('<diligencia>');
         w('  <referencia>');
         w('    <acta>' || p_acta || '</acta>');
         w('    <asignatura id="' || vAsignatura || '">' || vDescAsignatura || '</asignatura>');
         w('    <convocatoria>' || vDescConvocatoria || '</convocatoria>');
         w('    <curso>' || vCurso || '</curso>');
         w('    <grupo>' || vGrupo || '</grupo>');
         w('  </referencia>');
         w('  <estudiantes>');

         for i in lista_diligencias(p_Acta) loop
            w('  <estudiante>');
            w('    <dni>' || i.identificacion || '</dni>');
            w('    <nombre>' || i.nombre_alumno || '</nombre>');
            w('    <despues nota="' || i.calificacion_nueva_txt || '">' || i.nota_nueva || '</despues>');
            w('    <antes nota="' || i.calificacion_anterior_txt || '">' || i.nota_anterior || '</antes>');
            w('  </estudiante>');
         end loop;

         w('  </estudiantes>');
         w('</diligencia>');
         return vXML;
      --      exception
      --         when others then
      --            htp.print('MAL' || sqlerrm);
      end;
   end;

   function traspasar_diligencias(p_acta in number, p_per_id in number)
      return varchar2 is
      vReferencia   clob;
      vClob         clob;
      vPadre        number;

      cursor lista_actas_diligencias(p_Acta in number) is
         select *
         from act_actas
         where     id = p_acta
               and fecha_traspaso is not null;

      cursor lista_diligencias
      (
         p_Acta   in number
      ) is
         select p.nombre || ' ' || apellidos nombre_alumno,
                identificacion,
                nota_anterior,
                calificacion_anterior,
                nota_nueva,
                calificacion_nueva,
                ad.id                        diligencia_id
         from act_Actas               a,
              act_actas_asignaturas   aa,
              act_actas_estudiantes   e,
              act_actas_diligencias   ad,
              act_Ext_personas        p
         where     a.id = p_acta
               and a.id = aa.acta_id
               and aa.id = e.acta_asignatura_id
               and a.id = ad.acta_id
               and e.id = ad.acta_estudiante_id
               and ad.comentario_diligencia is null
               and e.persona_id = p.id
         order by fecha;
   begin
      dbms_output.put_line(-1);

      for x in lista_Actas_diligencias(p_acta) loop
         dbms_output.put_line(5);
         dbms_output.put_line(x.referencia);

         select id
         into vPadre
         from gri_per.per_rf_firmas
         where     tip_id = 4
               and referencia = x.referencia;

         dbms_output.put_line(10);
         vClob := diligencia_xml_firma(p_Acta);
         dbms_output.put_line(20);
         vReferencia :=
            rf_firma_xades.insert_document(p_tipo          => 3,
                                           p_ref_interna   => x.referencia,
                                           p_contenido     => vClob,
                                           p_descripcion   => 'Diligencia del acta ' || p_Acta,
                                           p_padre         => vPadre,
                                           p_server        => 'S');
         dbms_output.put_line(30);
         rf_firma_xades.insert_document_performer(p_referencia => vReferencia, p_persona => p_per_id, p_rol => 1);

         dbms_output.put_line(40);

         -- guardar comentarios de diligencias
         for l in lista_diligencias(p_Acta) loop
            update act_Actas_diligencias
            set comentario_diligencia = to_char(sysdate, 'dd/mm/yyyy hh24:mi:ss')
            where id = l.diligencia_id;
         end loop;

         commit;
      end loop;

      return (1);
   exception
      when others then
         dbms_output.put_line(dbms_utility.format_error_backtrace);
         dbms_output.put_line(sqlerrm);
         return (0);
   end;

   FUNCTION calcular_nota(p_acta IN NUMBER, p_estudiante IN NUMBER)
      RETURN number IS
      v_rdo           number;
      v_cumple        VARCHAR2(10);
      v_desglose      VARCHAR2(100);
      v_cal           VARCHAR2(20);
      v_np            NUMBER;
      v_nota          NUMBER;
      v_aux           NUMBER;
      v_aux2          NUMBER;
      v_rdo_parcial   number;
      v_rdo_acum      number;

      CURSOR grupos(p_acta IN NUMBER) IS
         SELECT *
         FROM act_actas_grupos
         WHERE acta_id = p_Acta
         ORDER BY orden, nombre;

      CURSOR preguntas(p_acta IN NUMBER, p_grupo IN NUMBER) IS
         SELECT *
         FROM act_actas_preguntas p
         WHERE grupo_id = p_grupo
         ORDER BY orden, nombre;
   BEGIN
      v_rdo := NULL;
      v_cumple := 'S';

      BEGIN
         SELECT a.permite_detalle_notas
         INTO v_desglose
         FROM act_Actas a
         WHERE a.id = p_acta;

         IF v_desglose = 0 THEN
            SELECT nota, no_presentado, calificacion_id
            INTO v_nota, v_np, v_cal
            FROM act_actas_asignaturas aa, act_actas_estudiantes e
            WHERE     aa.acta_id = p_acta
                  AND aa.id = e.acta_asignatura_id
                  AND e.persona_id = p_estudiante;

            IF v_nota IS NULL then
               v_np := 1;
            end if;

            if v_np = 1 THEN
               v_rdo := null;
            ELSE
               v_rdo := v_nota;
            END IF;
         ELSE
            v_nota := 0;
            v_Rdo := null;
            v_np := 1;

            FOR g IN grupos(p_acta) LOOP
               v_aux := 0;

               FOR p IN preguntas(p_Acta, g.id) LOOP
                  if p.parcial_Acta_id is null then
                     begin
                        SELECT n.nota
                        INTO v_aux2
                        FROM act_actas_asignaturas aa, act_actas_estudiantes e, act_actas_estudiantes_notas n
                        WHERE     aa.acta_id = p_Acta
                              AND aa.id = e.acta_asignatura_id
                              AND e.id = n.estudiante_id
                              AND n.pregunta_id = p.id
                              AND e.persona_id = p_estudiante;
                     exception
                        when no_data_found then
                           v_aux2 := null;
                           v_np := 1;
                     end;

                     IF v_aux2 IS NOT NULL THEN
                        v_np := 0;
                     END IF;

                     v_aux := v_aux + NVL(v_aux2, 0) * p.peso / 100;
                  else
                     v_aux2 := pack_Actas.calcular_nota(p.parcial_acta_id, p_estudiante);

                     if v_aux2 is not null then
                        v_np := 0;
                     end if;

                     v_aux := v_aux + NVL(v_aux2, 0) * p.peso / 100;
                  end if;
               END LOOP;

               IF v_aux < g.nota_minima_aprobado THEN
                  v_cumple := 'N';
               END IF;

               v_nota := v_nota + NVL(v_aux, 0);
            END LOOP;

            if v_nota > 0 then
               v_np := 0;
            end if;

            if v_np = 1 then
               v_Rdo := null;
            elsif     v_cumple = 'N'
                  and v_Nota > 4 then
               v_Rdo := 4;
            else
               v_rdo := v_nota;
            end if;
         END IF;
      EXCEPTION
         WHEN OTHERS THEN
            dbms_output.put_line(sqlerrm);
            v_rdo := null;
      END;

      RETURN (v_rdo);
   END;

   FUNCTION calcular_nota_detalle(p_acta IN NUMBER, p_estudiante IN NUMBER)
      RETURN VARCHAR2 IS
      v_rdo           number;
      v_rdo_txt       varchar2(4000);
      v_rdo_txt_g     varchar2(4000);
      v_cumple        VARCHAR2(10);
      v_desglose      VARCHAR2(100);
      v_cal           VARCHAR2(20);
      v_np            NUMBER;
      v_nota          NUMBER;
      v_aux           NUMBER;
      v_aux2          NUMBER;
      v_rdo_parcial   number;
      v_rdo_acum      number;

      CURSOR grupos(p_acta IN NUMBER) IS
         SELECT *
         FROM act_actas_grupos
         WHERE acta_id = p_Acta
         ORDER BY orden, nombre;

      CURSOR preguntas(p_acta IN NUMBER, p_grupo IN NUMBER) IS
         SELECT *
         FROM act_actas_preguntas p
         WHERE grupo_id = p_grupo
         ORDER BY orden, nombre;
   BEGIN
      v_rdo := NULL;
      v_rdo_txt := null;
      v_cumple := 'S';

      BEGIN
         SELECT a.permite_detalle_notas
         INTO v_desglose
         FROM act_Actas a
         WHERE a.id = p_acta;

         IF v_desglose = 0 THEN
            SELECT nota, no_presentado, calificacion_id
            INTO v_nota, v_np, v_cal
            FROM act_actas_asignaturas aa, act_actas_estudiantes e
            WHERE     aa.acta_id = p_acta
                  AND aa.id = e.acta_asignatura_id
                  AND e.persona_id = p_estudiante;

            IF v_nota IS NULL then
               v_np := 1;
            end if;

            if v_np = 1 THEN
               v_rdo := null;
            ELSE
               v_rdo := v_nota;
            END IF;
         ELSE
            v_nota := 0;
            v_Rdo := null;
            v_np := 1;

            FOR g IN grupos(p_acta) LOOP
               v_aux := 0;

               if v_rdo_txt is not null then
                  v_rdo_txt := v_rdo_txt || ' + ';
               end if;

               v_rdo_txt := v_rdo_txt || '(';
               v_rdo_txt_g := null;

               FOR p IN preguntas(p_Acta, g.id) LOOP
                  if p.parcial_Acta_id is null then
                     begin
                        SELECT n.nota
                        INTO v_aux2
                        FROM act_actas_asignaturas aa, act_actas_estudiantes e, act_actas_estudiantes_notas n
                        WHERE     aa.acta_id = p_Acta
                              AND aa.id = e.acta_asignatura_id
                              AND e.id = n.estudiante_id
                              AND n.pregunta_id = p.id
                              AND e.persona_id = p_estudiante;
                     exception
                        when no_data_found then
                           v_aux2 := null;
                           v_np := 1;
                     end;

                     IF v_aux2 IS NOT NULL THEN
                        v_np := 0;
                     END IF;

                     v_aux := v_aux + NVL(v_aux2, 0) * p.peso / 100;
                  else
                     v_aux2 := pack_actas.calcular_nota(p.parcial_acta_id, p_estudiante);

                     if v_aux2 is not null then
                        v_np := 0;
                     end if;
                  end if;

                  if v_rdo_txt_g is not null then
                     v_rdo_txt_g := v_rdo_txt_g || '+';
                  end if;

                  if v_aux2 is null then
                     v_rdo_txt_g := v_rdo_txt_g || '(NP*' || p.peso || '%)';
                  else
                     v_rdo_txt_g := v_rdo_txt_g || '(' || v_aux2 || '*' || p.peso || '%)';
                  end if;
               END LOOP;

               v_rdo_txt := v_rdo_txt || v_rdo_txt_g || ')';

               IF v_aux < g.nota_minima_aprobado THEN
                  v_cumple := 'N';
                  v_rdo_txt :=
                     v_rdo_txt || ' <b><span style="color:red">(' || v_aux || '<' || g.nota_minima_aprobado ||
                     ' No compleix)</span></b>';
               END IF;

               v_nota := v_nota + NVL(v_aux, 0);
            END LOOP;

            if v_nota > 0 then
               v_np := 0;
            end if;

            if v_np = 1 then
               v_rdo_txt := v_rdo_txt || ' NP ';
            end if;
         END IF;
      EXCEPTION
         WHEN OTHERS THEN
            dbms_output.put_line(sqlerrm);
            v_rdo := null;
      END;

      RETURN (v_rdo_txt);
   END;
end pack_actas;
										  
										  
										  
CREATE OR REPLACE FORCE VIEW UJI_ACTAS.ACT_VW_NOTAS_CALCULADAS
(
   ID,
   ACTA_ID,
   ESTUDIANTE_ID,
   PERSONA_ID,
   NOTA_CALCULADA,
   RDO,
   EXT,
   PERMITE_DETALLE_NOTAS
)
   BEQUEATH DEFINER AS
   SELECT a.id || '_' || aa.id || '_' || e.id                             id,
          a.id                                                            acta_id,
          e.id                                                            estudiante_id,
          e.persona_id                                                    persona_id,
          trunc(pack_Actas.calcular_nota(aa.acta_id, e.persona_id), 1) nota_calculada,
          null                                                            rdo,
          pack_actas.calcular_nota_detalle(aa.acta_id, e.persona_id)   ext,
          a.permite_detalle_notas
   FROM act_actas_estudiantes e, act_actas_asignaturas aa, act_Actas a
   WHERE     e.acta_asignatura_id = aa.id
         AND aa.acta_id = a.id;

		 
		 
drop function act_Calcular_nota;

drop function act_Calcular_nota_detalle;

create or replace view act_v_calificaciones as
   select 1 id, 'Suspés' nombre,'S' id_alt from dual
   union all
   select 2 id, 'Aprovat' nombre,'A' id_alt from dual
   union all
   select 3 id, 'Notable' nombre,'N' id_alt from dual
   union all
   select 4 id, 'Excel·lent' nombre,'X' id_alt from dual
   union all
   select 5 id, 'Matrícula d''honor' nombre,'M' id_alt from dual;
   
||||||| .r0
=======
CREATE OR REPLACE FORCE VIEW UJI_ACTAS.ACT_VW_ACTAS_DILIGENCIAS
(ACTA_ID, TIPO_ESTUDIO_ID, TIPO_ESTUDIO, CONVOCATORIA_ID, CONVOCATORIA,
 ID_UJI, CURSO_ACADEMICO_ID, ASIGNATURA_ID, ASIGNATURA, ALUMNO_ID,
 NOMBRE_ALUMNO, IDENTIFICACION, CUENTA, NOTA, CALIFICACION_ID,
 CALIFICACION, COMENTARIO_DILIGENCIA, FECHA_INICIO_TRASPASO, FECHA_FIN_TRASPASO, FECHA_TRASPASO,
 FECHA_FIRMA_DIGITAL, REFERENCIA, PERSONA_ID_ALTA, PERSONA_ALTA, PERSONA_ID_TRASPASO,
 PERSONA_TRASPASO, ACTA_ESTUDIANTE_ID, TIENE_DILIGENCIAS, MOTIVO_EXCLUSION)
BEQUEATH DEFINER
AS
SELECT a.id                                       acta_id,
          a.tipo_Estudio_id,
          te.nombre                                  tipo_Estudio,
          a.convocatoria_id,
          c.nombre                                   convocatoria,
          c.id_uji,
          a.curso_academico_id,
          aa.asignatura_id,
          asi.nombre                                 asignatura,
          e.persona_id                               alumno_id,
          p.nombre || ' ' || p.apellidos             nombre_alumno,
          p.identificacion,
          p.cuenta,
          NVL(d.nota_nueva, nota)                    nota,
          NVL(d.calificacion_nueva, calificacion_id) calificacion_id,
          cal.nombre                                 calificacion,
          d.comentario_diligencia,
          f.fecha_inicio_traspaso,
          f.fecha_fin_traspaso,
          a.fecha_traspaso,
          a.fecha_firma_digital,
          a.referencia,
          a.per_id                                   persona_id_alta,
          p1.nombre || ' ' || p1.apellidos           persona_alta,
          a.persona_id_traspaso,
          p2.nombre || ' ' || p2.apellidos           persona_traspaso,
          e.ID                                       acta_Estudiante_id,
          (select decode(count(*), 0, 0, 1)
           from act_actas_diligencias
           where     acta_id = a.id
                 and acta_estudiante_id = e.id)
             tiene_diligencias,
             e.motivo_exclusion
   FROM act_Actas                  a,
        act_actas_asignaturas      aa,
        act_convocatorias          c,
        act_ext_asignaturas        asi,
        act_tipos_estudios         te,
        act_Fechas_convocatorias   f,
        act_actas_estudiantes      e,
        (SELECT 1 id, 'SuspÃ©s' nombre FROM DUAL
         UNION ALL
         SELECT 2 id, 'Aprobat' nombre FROM DUAL
         UNION ALL
         SELECT 3 id, 'Notable' nombre FROM DUAL
         UNION ALL
         SELECT 4 id, 'ExcelÂ·lent' nombre FROM DUAL
         UNION ALL
         SELECT 5 id, 'MatrÃ­cula d''honor' nombre FROM DUAL
         UNION ALL
         SELECT -1 id, 'No presentat' nombre
         FROM DUAL) cal,
        act_ext_personas           p,
        act_ext_personas           p1,
        act_ext_personas           p2,
        (SELECT *
         FROM act_Actas_diligencias d
         WHERE fecha = (SELECT MAX(fecha)
                        FROM act_actas_diligencias d2
                        WHERE     d.acta_id = d2.acta_id
                              AND d.ACTA_ESTUDIANTE_ID = d2.ACTA_ESTUDIANTE_ID
                              AND d.PERSONA_ID = d2.PERSONA_ID)) d
   WHERE     a.id = aa.acta_id
         AND a.convocatoria_id = c.id
         AND a.tipo_estudio_id = te.id
         AND a.tipo_estudio_id = f.tipo_estudio_id
         AND a.convocatoria_id = f.convocatoria_id
         AND a.curso_academico_id = f.curso_academico_id
         AND a.fecha_traspaso IS NOT NULL
         AND aa.asignatura_id = asi.id
         AND aa.id = e.acta_asignatura_id
         AND NVL(e.calificacion_id, -1) = cal.id
         AND e.persona_id = p.id
         AND a.id = d.acta_id(+)
         AND e.id = d.acta_estudiante_id(+)
         AND a.per_id = p1.id(+)
         AND a.persona_id_traspaso = p2.id(+);
		 